…
# Problem2

``` r
##cleaning
  brfss_OH =
  brfss_smart2010 %>%
  janitor::clean_names() %>%
  filter(topic == "Overall Health") %>%
  mutate(
    response = factor(response, levels = c("Poor", "Fair", "Good", "Very good", "Excellent"), ordered = TRUE )
  )
brfss_OH
```

    ## # A tibble: 10,625 x 23
    ##     year locationabbr locationdesc class topic question response
    ##    <int> <chr>        <chr>        <chr> <chr> <chr>    <ord>   
    ##  1  2010 AL           AL - Jeffer… Heal… Over… How is … Excelle…
    ##  2  2010 AL           AL - Jeffer… Heal… Over… How is … Very go…
    ##  3  2010 AL           AL - Jeffer… Heal… Over… How is … Good    
    ##  4  2010 AL           AL - Jeffer… Heal… Over… How is … Fair    
    ##  5  2010 AL           AL - Jeffer… Heal… Over… How is … Poor    
    ##  6  2010 AL           AL - Mobile… Heal… Over… How is … Excelle…
    ##  7  2010 AL           AL - Mobile… Heal… Over… How is … Very go…
    ##  8  2010 AL           AL - Mobile… Heal… Over… How is … Good    
    ##  9  2010 AL           AL - Mobile… Heal… Over… How is … Fair    
    ## 10  2010 AL           AL - Mobile… Heal… Over… How is … Poor    
    ## # … with 10,615 more rows, and 16 more variables: sample_size <int>,
    ## #   data_value <dbl>, confidence_limit_low <dbl>,
    ## #   confidence_limit_high <dbl>, display_order <int>,
    ## #   data_value_unit <chr>, data_value_type <chr>,
    ## #   data_value_footnote_symbol <chr>, data_value_footnote <chr>,
    ## #   data_source <chr>, class_id <chr>, topic_id <chr>, location_id <chr>,
    ## #   question_id <chr>, respid <chr>, geo_location <chr>
…
accel
```

    ## # A tibble: 50,400 x 7
    ##     week day    sorted_DayId activity value  time day_type
    ##    <int> <ord>         <int>    <int> <int> <int> <chr>   
    ##  1     1 Monday            1        1     1     1 WeekDay 
    ##  2     1 Monday            1        2     1     2 WeekDay 
    ##  3     1 Monday            1        3     1     3 WeekDay 
    ##  4     1 Monday            1        4     1     4 WeekDay 
    ##  5     1 Monday            1        5     1     5 WeekDay 
    ##  6     1 Monday            1        6     1     6 WeekDay 
    ##  7     1 Monday            1        7     1     7 WeekDay 
    ##  8     1 Monday            1        8     1     8 WeekDay 
    ##  9     1 Monday            1        9     1     9 WeekDay 
    ## 10     1 Monday            1       10     1    10 WeekDay 
    ## # … with 50,390 more rows
…
